{
  "__type__": "cc.AnimationClip",
  "_name": "Land",
  "_objFlags": 0,
  "_native": "",
  "_duration": 0.23333333333333334,
  "sample": 30,
  "speed": 0.5,
  "wrapMode": 1,
  "curveData": {
    "comps": {
      "cc.Sprite": {
        "spriteFrame": [
          {
            "frame": 0,
            "value": {
              "__uuid__": "8805125b-a804-409b-93fa-ea405ee9eb33"
            }
          },
          {
            "frame": 0.03333333333333333,
            "value": {
              "__uuid__": "83c9fe04-381e-4edd-9c03-589b1ed4c4f7"
            }
          },
          {
            "frame": 0.06666666666666667,
            "value": {
              "__uuid__": "279d2ad4-19df-47d1-a98d-45a026e1e8ae"
            }
          },
          {
            "frame": 0.1,
            "value": {
              "__uuid__": "2b202319-d7f6-43d5-bf66-7b277f4f375b"
            }
          },
          {
            "frame": 0.13333333333333333,
            "value": {
              "__uuid__": "d88d6717-e2f9-424f-8a41-4e90e9b42d50"
            }
          },
          {
            "frame": 0.16666666666666666,
            "value": {
              "__uuid__": "dcf267ac-b0cd-4726-9637-3d3047f12d43"
            }
          },
          {
            "frame": 0.2,
            "value": {
              "__uuid__": "90b2b5d6-a180-47a9-82de-3643dc25f783"
            }
          }
        ]
      }
    }
  },
  "events": []
}