{
  "__type__": "cc.AnimationClip",
  "_name": "sand_break",
  "_objFlags": 0,
  "_native": "",
  "_duration": 0.26666666666666666,
  "sample": 60,
  "speed": 1,
  "wrapMode": 1,
  "curveData": {
    "comps": {
      "cc.Sprite": {
        "spriteFrame": [
          {
            "frame": 0,
            "value": {
              "__uuid__": "9e9da41d-db9c-436a-9a16-97fa2cc3c74c"
            }
          },
          {
            "frame": 0.08333333333333333,
            "value": {
              "__uuid__": "3d224dac-91ce-4ce5-9176-ce9db32f908c"
            }
          },
          {
            "frame": 0.16666666666666666,
            "value": {
              "__uuid__": "951c1dfb-5020-400d-8c1e-ab42930fd459"
            }
          },
          {
            "frame": 0.25,
            "value": {
              "__uuid__": "48d96ed2-f9f1-46a5-b414-3a0b3312ab4b"
            }
          }
        ]
      }
    }
  },
  "events": []
}